Calculate the useful energy produced by working animals performing muscle work — calc_useful_energy • MWTools
…
    Examples

MWTools::amw_test_data_path() %>%
  read.csv() %>%
  tidy_fao_live_animals() %>%
  add_concordance_codes() %>%
  trim_fao_data() %>%
  get_working_species() %>%
  calc_working_animals() %>%
  calc_sector_split() %>%
  calc_yearly_feed() %>%
  calc_final_energy() %>%
  calc_primary_energy() %>%
  calc_useful_energy()
#> # A tibble: 372 × 23
#>    Country.code AMW.Region.code  Year Species  Live.animals Prop.Working.animals
#>    <chr>        <chr>           <dbl> <chr>           <dbl>                <dbl>
#>  1 CHNM         SAS              1960 Asses         7527000                0.822
#>  2 CHNM         SAS              1960 Buffalo…      8043000                0.492
#>  3 CHNM         SAS              1960 Cattle       49400000                0.649
#>  4 CHNM         SAS              1960 Horses        6585000                0.8  
#>  5 CHNM         SAS              1960 Mules a…      1427000                0.725
#>  6 CHNM         SAS              1960 Camelids       381000                0.9  
#>  7 CHNM         SAS              1961 Asses         7527000                0.822
#>  8 CHNM         SAS              1961 Buffalo…      8043000                0.492
#>  9 CHNM         SAS              1961 Cattle       49400000                0.645
#> 10 CHNM         SAS              1961 Horses        6585000                0.8  
#> # ℹ 362 more rows
#> # ℹ 17 more variables: Working.animals.total <dbl>,
#> #   Prop.Working.animals.Ag <dbl>, Prop.Working.animals.Tr <dbl>,
#> #   Working.animals.Ag <dbl>, Working.animals.Tr <dbl>,
#> #   `Total.yearly.feed [MJ/year per animal]` <dbl>,
#> #   `Final.energy.total [MJ/year]` <dbl>, `Final.energy.Ag [MJ/year]` <dbl>,
#> #   `Final.energy.Tr [MJ/year]` <dbl>, …
…
