Prep PFU data for conversion to PSUT matrices — add_row_col_meta • MWTools
…
hmw_df <- hmw_test_data_path() %>%
  read.csv() %>%
  calc_hmw_pfu()
amw_df <- amw_test_data_path() %>%
  read.csv() %>%
  calc_amw_pfu()
specify_energy_type_method(hmw_df, amw_df) %>%
  specify_product() %>%
  specify_ktoe() %>%
  MWTools::specify_primary_production() %>%
  specify_useful_products() %>%
  specify_fu_machines() %>%
  specify_last_stages() %>%
  MWTools::add_row_col_meta()
#> # A tibble: 13,944 × 16
#>    Country  Year Species     Stage Sector Unit  E.dot Energy.type Method Product
#>    <chr>   <dbl> <chr>       <chr> <chr>  <chr> <dbl> <chr>       <chr>  <chr>  
#>  1 GBR      1969 Human fema… Prim… Agric… ktoe   38.2 E           PCM    Biomas…
#>  2 GBR      1970 Human fema… Prim… Agric… ktoe   37.4 E           PCM    Biomas…
#>  3 GBR      1971 Human fema… Prim… Agric… ktoe   35.9 E           PCM    Biomas…
#>  4 GBR      1972 Human fema… Prim… Agric… ktoe   34.9 E           PCM    Biomas…
#>  5 GBR      1973 Human fema… Prim… Agric… ktoe   38.7 E           PCM    Biomas…
#>  6 GBR      1974 Human fema… Prim… Agric… ktoe   36.0 E           PCM    Biomas…
#>  7 GBR      1975 Human fema… Prim… Agric… ktoe   35.6 E           PCM    Biomas…
#>  8 GBR      1976 Human fema… Prim… Agric… ktoe   36.8 E           PCM    Biomas…
#>  9 GBR      1977 Human fema… Prim… Agric… ktoe   36.1 E           PCM    Biomas…
#> 10 GBR      1978 Human fema… Prim… Agric… ktoe   36.8 E           PCM    Biomas…
#> # … with 13,934 more rows, and 6 more variables: Last.stage <chr>,
#> #   matnames <chr>, rownames <chr>, colnames <chr>, rowtypes <chr>,
#> #   coltypes <chr>
…
