Calculate the useful energy produced by working animals performing muscle work — calc_useful_energy • MWTools
…
    Examples

MWTools::amw_test_data_path() %>%
  read.csv() %>%
  tidy_fao_live_animals() %>%
  add_concordance_codes() %>%
  trim_fao_data() %>%
  get_working_species() %>%
  calc_working_animals() %>%
  calc_sector_split() %>%
  calc_yearly_feed() %>%
  calc_final_energy() %>%
  calc_primary_energy() %>%
  calc_useful_energy()
#> # A tibble: 354 × 24
#>    Country.code AMW.Region.code Country.name     Year Species   Live.animals
#>    <chr>        <chr>           <chr>           <dbl> <chr>            <dbl>
#>  1 CHN          CHN             China, mainland  1961 Asses         1000000 
#>  2 CHN          CHN             China, mainland  1961 Buffaloes     1000000 
#>  3 CHN          CHN             China, mainland  1961 Camelids      1000000 
#>  4 CHN          CHN             China, mainland  1961 Cattle        1000000 
#>  5 CHN          CHN             China, mainland  1961 Horses        1000000 
#>  6 CHN          CHN             China, mainland  1961 Mules         1000000 
#>  7 CHN          CHN             China, mainland  1962 Asses          998276.
#>  8 CHN          CHN             China, mainland  1962 Buffaloes      998276.
#>  9 CHN          CHN             China, mainland  1962 Camelids       998276.
#> 10 CHN          CHN             China, mainland  1962 Cattle         998276.
#> # … with 344 more rows, and 18 more variables: Prop.Working.animals <dbl>,
#> #   Working.animals.total <dbl>, Prop.Working.animals.Ag <dbl>,
#> #   Prop.Working.animals.Tr <dbl>, Working.animals.Ag <dbl>,
#> #   Working.animals.Tr <dbl>, `Total.yearly.feed [MJ/year per animal]` <dbl>,
#> #   `Final.energy.total [MJ/year]` <dbl>, `Final.energy.Ag [MJ/year]` <dbl>,
#> #   `Final.energy.Tr [MJ/year]` <dbl>, `Primary.energy.total [MJ/year]` <dbl>,
#> #   `Primary.energy.Ag [MJ/year]` <dbl>, `Primary.energy.Tr [MJ/year]` <dbl>, …
…
