Specify final-to-useful industries — specify_fu_machines • MWTools
…
    Examples

hmw_df <- hmw_test_data_path() %>%
  read.csv() %>%
  calc_hmw_pfu()
amw_df <- amw_test_data_path() %>%
  read.csv() %>%
  calc_amw_pfu()
specify_energy_type_method(hmw_df, amw_df) %>%
  specify_product() %>%
  MWTools::specify_primary_production() %>%
  specify_useful_products() %>%
  specify_fu_machines()
#> # A tibble: 3,984 × 10
#>    Country  Year Species   Stage Sector Unit    E.dot Energy.type Method Product
#>    <chr>   <dbl> <chr>     <chr> <chr>  <chr>   <dbl> <chr>       <chr>  <chr>  
#>  1 GBR      1969 Human fe… Final Agric… EJ    9.92e-4 E           PCM    Food   
#>  2 GBR      1969 Human fe… Prim… Agric… EJ    1.60e-3 E           PCM    Biomass
#>  3 GBR      1970 Human fe… Final Agric… EJ    9.70e-4 E           PCM    Food   
#>  4 GBR      1970 Human fe… Prim… Agric… EJ    1.56e-3 E           PCM    Biomass
#>  5 GBR      1971 Human fe… Final Agric… EJ    9.32e-4 E           PCM    Food   
#>  6 GBR      1971 Human fe… Prim… Agric… EJ    1.50e-3 E           PCM    Biomass
#>  7 GBR      1972 Human fe… Final Agric… EJ    9.07e-4 E           PCM    Food   
#>  8 GBR      1972 Human fe… Prim… Agric… EJ    1.46e-3 E           PCM    Biomass
#>  9 GBR      1973 Human fe… Final Agric… EJ    1.00e-3 E           PCM    Food   
#> 10 GBR      1973 Human fe… Prim… Agric… EJ    1.62e-3 E           PCM    Biomass
#> # … with 3,974 more rows
…
