Add a product column to a muscle work data frame — specify_product • MWTools
…
    Examples

ilo_working_hours_data <- read.csv(file = MWTools::ilo_working_hours_test_data_path())
ilo_employment_data <- read.csv(file = MWTools::ilo_employment_test_data_path())
hmw_data <- prepareRawILOData(ilo_working_hours_data = ilo_working_hours_data,
                              ilo_employment_data = ilo_employment_data)
hmw_df <- hmw_data %>%
  calc_hmw_pfu() %>%
  specify_product()
amw_df <- amw_test_data_path() %>%
  read.csv() %>%
  calc_amw_pfu()
specify_energy_type_method(hmw_df, amw_df) %>%
  specify_product()
#> # A tibble: 3,294 × 10
#>    Country  Year Species   Stage Sector Unit    E.dot Product Energy.type Method
#>    <chr>   <dbl> <chr>     <chr> <chr>  <chr>   <dbl> <chr>   <chr>       <chr> 
#>  1 GBR      1960 Human fe… Final Agric… EJ    8.68e-4 Food    E           PCM   
#>  2 GBR      1960 Human fe… Final Indus… EJ    1.54e-2 Food    E           PCM   
#>  3 GBR      1960 Human fe… Final Servi… EJ    2.82e-2 Food    E           PCM   
#>  4 GBR      1960 Human fe… Prim… Agric… EJ    1.40e-3 Biomass E           PCM   
#>  5 GBR      1960 Human fe… Prim… Indus… EJ    2.48e-2 Biomass E           PCM   
#>  6 GBR      1960 Human fe… Prim… Servi… EJ    4.55e-2 Biomass E           PCM   
#>  7 GBR      1960 Human fe… Usef… Agric… EJ    4.16e-5 HuMech  E           PCM   
#>  8 GBR      1960 Human fe… Usef… Indus… EJ    7.43e-4 HuMech  E           PCM   
#>  9 GBR      1960 Human fe… Usef… Servi… EJ    4.77e-4 HuMech  E           PCM   
#> 10 GBR      1960 Human ma… Final Agric… EJ    4.64e-3 Food    E           PCM   
#> # ℹ 3,284 more rows
…
