Converts units from EJ to ktoe — specify_ktoe • MWTools
…
    .df with energy column converted from EJ to ktoe.

    Details

    Prior to converting the energy_col from EJ to ktoe,
the units_col is verified to contain only "EJ".
An error is thrown if any units_col entry is not in EJ.

    Examples

hmw_test_data_path() %>%
  read.csv() %>%
  calc_hmw_pfu() %>%
  specify_ktoe()
#> # A tibble: 864 × 7
#>    Country  Year Species       Stage   Sector      Unit  E.dot
#>    <chr>   <dbl> <chr>         <chr>   <chr>       <chr> <dbl>
#>  1 GBR      1969 Human females Final   Agriculture ktoe  23.7 
#>  2 GBR      1969 Human females Primary Agriculture ktoe  38.2 
#>  3 GBR      1969 Human females Useful  Agriculture ktoe   1.41
#>  4 GBR      1970 Human females Final   Agriculture ktoe  23.2 
#>  5 GBR      1970 Human females Primary Agriculture ktoe  37.4 
#>  6 GBR      1970 Human females Useful  Agriculture ktoe   1.37
#>  7 GBR      1971 Human females Final   Agriculture ktoe  22.3 
#>  8 GBR      1971 Human females Primary Agriculture ktoe  35.9 
#>  9 GBR      1971 Human females Useful  Agriculture ktoe   1.31
#> 10 GBR      1972 Human females Final   Agriculture ktoe  21.7 
#> # … with 854 more rows
…
